08 Challenge Recipe
…
# Vorbereiten des Data splits
#bike_features_tbl %>% distinct(category_2) ??

# 3. LINEAR MODEL
# Modelling: Creating model, set engine, fit model to data
model_01_linear_lm_simple <- linear_reg(mode = "regression") %>%
  set_engine("lm") %>%
  fit(price ~ category_2 + frame_material, data = train_tbl) #mit zwei Variablen

#Predictions
model_01_linear_lm_simple %>%
  predict(new_data = test_tbl)

## # A tibble: 47 × 1
##    .pred
##    <dbl>
##  1 4407.
##  2 1578.
##  3 1578.
##  4 1578.
##  5 3111.
##  6 3335.
##  7 4384.
##  8 4384.
##  9 4384.
## 10 4384.
## # … with 37 more rows
…
